  68
time,br,br_err,sun_x,sum_y,sum_z,obs_x,obs_y,obs_z
   1752.3477734001353       0.74005062273000000        1.0000000474974513E-003  -1.3131558784999999        1.1148100221999999       0.39653204609999998      -0.40497003209999999        1.5140315165000000       0.57014432179999996     
   1791.3184569999576       0.78228232158300004        1.0000000474974513E-003  -1.5218088426000000       0.78198123369999994       0.16984978090000000       -1.0960776531000000        1.6095500243000000       0.52754626609999999     
   1791.3925355002284       0.88457258339199996        1.0000000474974513E-003  -1.5220857569999999       0.78127509760000002       0.16939875060000001       -1.0975385415000001        1.6093418899000000       0.52730876820000006     
   1806.3238900997676       0.84401181311399998        1.0000000474974513E-003  -1.5676936297999999       0.63408671270000005        7.7574947000000005E-002  -1.3933612169000000        1.5329043777000000       0.46580840390000000     
   1806.3979401001707       0.92872230883800000        1.0000000474974513E-003  -1.5678676944000001       0.63333371559999996        7.7115915399999999E-002  -1.3948193236999999        1.5323510492000001       0.46543492170000000     
   1806.5740113998763        1.1026074347000001        1.0000000474974513E-003  -1.5682794368999999       0.63154248989999995        7.6024337999999997E-002  -1.3982853075999999        1.5310284799000000       0.46454414259999999     
   1806.6480625001714       0.92432796767500003        1.0000000474974513E-003  -1.5684520784000000       0.63078915629999999        7.5565328299999998E-002  -1.3997429539999999        1.5304696678000000       0.46416847639999997     
   2264.2526297997683        1.3095727221630000        1.0000000474974513E-003   4.7013347000000004E-003   1.4755944321000001       0.84008749869999999      -0.98924956860000002        1.5755922180999999       0.88443345569999998     
   2264.4286973001435        1.1446075177599999        1.0000000474974513E-003   2.6306483999999999E-003   1.4760393804000000       0.83996637850000000      -0.99169378949999998        1.5732243055999999       0.88309531620000004     
   2281.9326756000519       0.99718808131400005        1.0000000474974513E-003 -0.20268493979999999        1.5066461085000000       0.82028827729999998       -1.1873561656000000        1.3241479912000000       0.74214453869999997     
   2282.0067548002116        1.0544499758679999        1.0000000474974513E-003 -0.20354846490000000        1.5067183419000001       0.82017334720000001       -1.1879837248000000        1.3230552013000001       0.74152335810000003     
   2319.4769334997982       0.96929902439299997        1.0000000474974513E-003 -0.62715311720000000        1.4842566827999999       0.73094221179999996       -1.3029978244000000       0.78910976249999998       0.42923089469999998     
   2351.6344730001874       0.71157523590299998        1.0000000474974513E-003 -0.95471816269999998        1.3758840757999999       0.61024529969999997       -1.1466433326000001       0.45459095740000000       0.20942751940000001     
   2351.7085417001508       0.78569687412500000        1.0000000474974513E-003 -0.95541987049999999        1.3755455351999999       0.60992635829999997       -1.1461072687000000       0.45402494030000001       0.20900863000000000     
   2374.2066600001417       0.90046180497799999        1.0000000474974513E-003  -1.1549417046999999        1.2548984644000001       0.50537354860000006      -0.96478754929999999       0.33088806139999999       0.10330345770000000     
   2461.7094991998747        1.0277498335819999        1.0000000474974513E-003  -1.5902401932000001       0.50115846470000003       -1.2968297000000000E-003 -0.57884746430000000       0.58209724299999999        3.4814725400000003E-002
   2461.7835646001622        1.1711114295439999        1.0000000474974513E-003  -1.5903236096000000       0.50037292810000000       -1.7581930999999999E-003 -0.57906116330000001       0.58248878859999997        3.4863149400000001E-002
   2476.2878991002217       0.92268432874999995        1.0000000474974513E-003  -1.5955564007000000       0.34331210320000000       -9.1898936500000000E-002 -0.64097798260000005       0.65098982210000000        4.2248767100000001E-002
   2476.4640052998438       0.98176485211300002        1.0000000474974513E-003  -1.5954826384000000       0.34137085070000001       -9.2988084200000001E-002 -0.64196713650000004       0.65169679570000005        4.2302750600000001E-002
   2512.0092974998988       0.86329557704200000        1.0000000474974513E-003  -1.5084891088000001       -5.9999231600000001E-002 -0.30522861839999998      -0.93128047709999995       0.69386657200000001        2.0945205800000002E-002
   2544.1638297000900       0.79068402544899996        1.0000000474974513E-003  -1.2971873789999999      -0.41812141539999997      -0.47046720310000001       -1.2489159832000001       0.49735925399999997       -7.5070629500000000E-002
   2567.1600938001648       0.87453507625799998        1.0000000474974513E-003  -1.0649378332999999      -0.65007894280000000      -0.56026848119999995       -1.4138130097999999       0.20641699720000001      -0.19023792360000000     
   2567.2341312998906       0.98637806296399999        1.0000000474974513E-003  -1.0640819369000001      -0.65077136199999996      -0.56050722630000005       -1.4141778728000001       0.20530003990000001      -0.19065888389999999     
   2609.4464336000383        1.0968115837850001        1.0000000474974513E-003 -0.47528946760000002      -0.95638000030000003      -0.62774956550000005       -1.3672075692000001      -0.54664741400000005      -0.44972697969999997     
   2609.6225640000775        1.0608515025209999        1.0000000474974513E-003 -0.47247248790000002      -0.95718805559999998      -0.62769978289999995       -1.3657957566000001      -0.54999608700000002      -0.45077156429999998     
   2609.6966380998492       0.97036742007499999        1.0000000474974513E-003 -0.47128640399999999      -0.95752623790000002      -0.62767771689999996       -1.3651981168000000      -0.55140392360000001      -0.45121026019999999     
   2622.3768851999193        1.0811415283979999        1.0000000474974513E-003 -0.26313710029999998       -1.0027339126999999      -0.61576248649999998       -1.2348213767000000      -0.78819224460000004      -0.52192700729999997     
   2622.4509232002310        1.1020020703680000        1.0000000474974513E-003 -0.26189544960000000       -1.0029200514000001      -0.61564400730000002       -1.2338963080000001      -0.78953682219999999      -0.52230885610000000     
   2622.6269653998315       0.98363877156099999        1.0000000474974513E-003 -0.25894361929999998       -1.0033597837999999      -0.61536060660000003       -1.2316906113999999      -0.79273241600000000      -0.52321574650000002     
   2622.7010042001493        1.0324744222950000        1.0000000474974513E-003 -0.25770142650000000       -1.0035429624000001      -0.61524034689999996       -1.2307595192000000      -0.79407521670000003      -0.52359635620000000     
   2676.9094588002190       0.76105108870700000        1.0000000474974513E-003  0.63476436349999998      -0.86388532139999996      -0.37473655639999998      -0.13474691670000000       -1.4674365403000000      -0.63631464220000000     
   2677.1596149997786       0.88423720701700004        1.0000000474974513E-003  0.63839842719999995      -0.86196130599999998      -0.37298742200000001      -0.12835646349999999       -1.4685442659000001      -0.63588993169999997     
   2677.4097680998966       0.86351452535700002        1.0000000474974513E-003  0.64202429760000002      -0.86002649419999999      -0.37123366060000001      -0.12196043340000000       -1.4696300519000001      -0.63545576790000002     
   2677.6599182998762       0.76754808167900002        1.0000000474974513E-003  0.64564190389999998      -0.85808092609999997      -0.36947524009999999      -0.11555889720000000       -1.4706938782000001      -0.63501211209999997     
   2677.9100659000687       0.93510712985300004        1.0000000474974513E-003  0.64925132720000001      -0.85612367970000003      -0.36771181149999999      -0.10915190730000000       -1.4717347828000000      -0.63455858190000003     
   2678.1602110001259       0.75291910692899999        1.0000000474974513E-003  0.65285231590000004      -0.85415660530000004      -0.36594417210000002      -0.10273964860000000       -1.4727545690999999      -0.63409595439999999     
   3024.0859392001294        1.2057423424210001        1.0000000474974513E-003  -1.2074788489999999        1.2077256468999999       0.46896719399999998       -2.1383869437000000       0.85069434509999997       0.31498470960000002     
   3024.2620210000314        1.1156247857799999        1.0000000474974513E-003  -1.2088509801000000        1.2065669423000001       0.46806115459999997       -2.1386152083000001       0.84694319050000000       0.31295053909999998     
   3024.3360756998882       0.92653450958200001        1.0000000474974513E-003  -1.2094270848999999        1.2060788456000000       0.46767982130000002       -2.1387076831999998       0.84536579349999996       0.31209518170000000     
   3024.5121563998982        1.1422103160340000        1.0000000474974513E-003  -1.2107962604000000        1.2049172537999999       0.46677271430000000       -2.1389210267999998       0.84161659129999999       0.31006199579999999     
   3024.5862107002176        1.1956495823210000        1.0000000474974513E-003  -1.2113713390000000        1.2044280676000001       0.46639095429999999       -2.1390074620999999       0.84004015040000002       0.30920706739999998     
   3031.7662395997904        1.0827388870310000        1.0000000474974513E-003  -1.2654358180000000        1.1553487460000000       0.42874605249999997       -2.1387700990999998       0.68867550349999995       0.22701927920000001     
   3031.8403082001023       0.87970581251000002        1.0000000474974513E-003  -1.2659754419000000        1.1548255262000000       0.42835133219999999       -2.1386797675999998       0.68713203519999999       0.22617996709999999     
   3032.0164240999147        1.0695831044070001        1.0000000474974513E-003  -1.2672571505000001        1.1535801087999999       0.42741232140000002       -2.1384579788000000       0.68346380929999995       0.22418515920000001     
   3032.0904942997731        1.1524686471740000        1.0000000474974513E-003  -1.2677957019999999        1.1530557452000001       0.42701715990000000       -2.1383618287999999       0.68192176410000005       0.22334651540000000     
   3077.4807374998927       0.77078776287399997        1.0000000474974513E-003  -1.5207377518000000       0.77301141159999998       0.16544376520000001       -1.7942661145000001      -0.12691342159999999      -0.22568665809999999     
   3077.5547787002288       0.86707090412499999        1.0000000474974513E-003  -1.5210124516000001       0.77230482150000002       0.16499272490000000       -1.7933268932999999      -0.12793686109999999      -0.22627693169999999     
   3103.2251086998731       0.82341477757600001        1.0000000474974513E-003  -1.5855150242000000       0.51353277440000000        6.3435855000000003E-003  -1.4245785237999999      -0.41038598300000001      -0.39549966399999997     
   3103.2991863000207       0.82363592055000001        1.0000000474974513E-003  -1.5856082905000000       0.51275029610000000        5.8822333999999999E-003  -1.4234245263000000      -0.41098623940000001      -0.39588179709999999     
   3135.7047854000703       0.89881154192699997        1.0000000474974513E-003  -1.5707047239000000       0.15639616090000000      -0.19385745850000000      -0.91191422320000004      -0.55700469549999998      -0.50372976739999997     
   3135.7788241999224        1.0163110548709999        1.0000000474974513E-003  -1.5705371542000000       0.15555844990000001      -0.19430303120000000      -0.91078142579999999      -0.55708571129999995      -0.50384455989999999     
   3170.6755329999141        1.1427791217990000        1.0000000474974513E-003  -1.4184153851000001      -0.24051923219999999      -0.39182078339999998      -0.44133577800000001      -0.49448868699999998      -0.50118681109999996     
   3191.4227128000930        1.2483373949559999        1.0000000474974513E-003  -1.2555532195000001      -0.46645843199999998      -0.49074840780000001      -0.24630143010000000      -0.39355538960000003      -0.45809937589999999     
   3191.4967538001947        1.2138774784280000        1.0000000474974513E-003  -1.2548726127000001      -0.46723517570000000      -0.49106657339999998      -0.24573426079999999      -0.39315678910000001      -0.45790796940000000     
   3235.3651561001316        1.4851113472799999        1.0000000474974513E-003 -0.73173730680000004      -0.86039053280000000      -0.61990415020000000       -5.8669911800000002E-002 -0.17440557440000001      -0.32250262029999999     
   3235.4392154999077        1.4536781386210000        1.0000000474974513E-003 -0.73066534470000000      -0.86090090490000004      -0.62000011200000005       -5.8567883299999998E-002 -0.17412729890000000      -0.32225946630000002     
   3235.6153060002252        1.5034286144689999        1.0000000474974513E-003 -0.72811457749999997      -0.86211265690000005      -0.62022785280000003       -5.8327777300000001E-002 -0.17346836920000000      -0.32168286410000002     
   3235.6893640002236        1.5062166317940000        1.0000000474974513E-003 -0.72704084719999995      -0.86262110879999998      -0.62032284159999995       -5.8227723900000000E-002 -0.17319205069999999      -0.32144040159999998     
   3239.6914256000891        1.5000131919769999        1.0000000474974513E-003 -0.66819665230000003      -0.88909699860000002      -0.62473390100000004       -5.3609059799999997E-002 -0.15898400609999999      -0.30836514949999999     
   3239.8675044998527        1.5324064867900000        1.0000000474974513E-003 -0.66557136920000004      -0.89021555539999997      -0.62489472970000004       -5.3440008099999999E-002 -0.15839211080000001      -0.30779111469999998     
   3239.9415588001721        1.4911067609519999        1.0000000474974513E-003 -0.66446634459999998      -0.89068479919999999      -0.62496152790000004       -5.3369737500000000E-002 -0.15814403160000001      -0.30754974010000002     
   3240.1176399001852        1.4864853827290001        1.0000000474974513E-003 -0.66183694100000001      -0.89179816329999995      -0.62511931779999996       -5.3204774099999998E-002 -0.15755670299999999      -0.30697687130000001     
   3330.4629736999050       0.48124152207999998        1.0000000474974513E-003  0.78538290870000005      -0.77538536059999996      -0.29768928569999997       -2.3435080399999999E-002 -0.23310260669999999       -6.2654264599999995E-002
   3330.5369875999168       0.58980691997599999        1.0000000474974513E-003  0.78634605130000002      -0.77468704649999998      -0.29711884140000000       -2.3248686800000001E-002 -0.23337077689999999       -6.2499668500000001E-002
   3349.5309333000332       0.39924314340599998        1.0000000474974513E-003   1.0025390853000000      -0.57015866859999997      -0.14194210920000000        4.2024352899999999E-002 -0.30187813450000001       -2.4953760600000000E-002
   3386.1750598000363       0.66659704980099999        1.0000000474974513E-003   1.2237133142000001       -8.2436464700000003E-002  0.17493105319999999       0.27077007980000001      -0.39159310170000000        4.1898586000000002E-002
   3386.2490937998518       0.65554460828100003        1.0000000474974513E-003   1.2238925114000001       -8.1393980199999993E-002  0.17555540780000001       0.27136378830000002      -0.39166400190000000        4.2039143600000002E-002
   3414.2421590997837       0.68454234468999997        1.0000000474974513E-003   1.2206370930999999       0.30981481129999999       0.39708927680000000       0.52539819290000001      -0.36951336790000000       0.10281421509999999     
